Prática Aula 3 - Estatística descritiva - 2020-2
…
## The following objects are masked from 'package:stats':
## 
##     filter, lag

## The following objects are masked from 'package:base':
## 
##     intersect, setdiff, setequal, union

library(ggplot2)

Após carregar estes dois pacotes, vamos calcular as medidas de tendência central e de dispersão. Para obter as medidas de cada tratamento e em cada dosagem, é preciso agrupar essas observações. Para isso, vamos usar a função group_by(x,…). Dentro dela, iremos colocar as colunas pelas quais queremos agrupar nossos valores, ou seja, ‘supp’ e ‘dose’. A sintaxe usada pelo dplyr envolve o uso de ‘pipes’, representados por %>%. Isso irá indicar a ordem que queremos processar nosso banco de dados. Com isso, por enquanto nós temos:

 ToothGrowth %>% group_by(supp, dose)

## # A tibble: 60 x 3
## # Groups:   supp, dose [6]
##      len supp   dose
##    <dbl> <fct> <dbl>
##  1   4.2 VC      0.5
##  2  11.5 VC      0.5
##  3   7.3 VC      0.5
##  4   5.8 VC      0.5
##  5   6.4 VC      0.5
##  6  10   VC      0.5
##  7  11.2 VC      0.5
##  8  11.2 VC      0.5
##  9   5.2 VC      0.5
## 10   7   VC      0.5
## # … with 50 more rows
…
